1	User	Maint	umaint@store.com	(111) 111-1111	11111111	2000-01-01	0	2
2	Prod	Maint	pmaint@store.com	(222) 222-2222	22222222	2000-01-01	0	3
3	Ad	min	admin@store.com	(333) 333-3333	33333333	2000-01-01	0	4
4	Kelly	Lamb	kl@kl.com	(562) 555-1234	12345678	1965-05-01	0	1
5	Deena	Lamb	dl@dl.com	(555) 555-5555	12345678	2000-07-20	1	1
